{
  "usingComponents": {
    "van-icon": "vant-weapp/icon/index",
    "van-dialog": "vant-weapp/dialog/index",
    "van-rate": "vant-weapp/rate/index"
  },
  "navigationBarTitleText": "Courses Detail"
}